{
  "items": [
    {
      "album": {
        "album_type": "SINGLE",
        "artists": [
          {
            "external_urls": {
              "spotify": "https://open.spotify.com/artist/2nsCjA4fEasmnlOK0wXU7T"
            },
            "href": "https://api.spotify.com/v1/artists/2nsCjA4fEasmnlOK0wXU7T",
            "id": "2nsCjA4fEasmnlOK0wXU7T",
            "name": "NIVIRO",
            "type": "artist",
            "uri": "spotify:artist:2nsCjA4fEasmnlOK0wXU7T"
          }
        ],
        "available_markets": [
        ],
        "external_urls": {
          "spotify": "https://open.spotify.com/album/57UuDjw60Eegn67ttVOva4"
        },
        "href": "https://api.spotify.com/v1/albums/57UuDjw60Eegn67ttVOva4",
        "id": "57UuDjw60Eegn67ttVOva4",
        "images": [
          {
            "height": 640,
            "url": "https://i.scdn.co/image/ab67616d0000b273e2221f2c3939cf2912848df9",
            "width": 640
          },
          {
            "height": 300,
            "url": "https://i.scdn.co/image/ab67616d00001e02e2221f2c3939cf2912848df9",
            "width": 300
          },
          {
            "height": 64,
            "url": "https://i.scdn.co/image/ab67616d00004851e2221f2c3939cf2912848df9",
            "width": 64
          }
        ],
        "name": "The Apocalypse",
        "release_date": "2018-06-08",
        "release_date_precision": "day",
        "total_tracks": 1,
        "type": "album",
        "uri": "spotify:album:57UuDjw60Eegn67ttVOva4"
      },
      "artists": [
        {
          "external_urls": {
            "spotify": "https://open.spotify.com/artist/2nsCjA4fEasmnlOK0wXU7T"
          },
          "href": "https://api.spotify.com/v1/artists/2nsCjA4fEasmnlOK0wXU7T",
          "id": "2nsCjA4fEasmnlOK0wXU7T",
          "name": "NIVIRO",
          "type": "artist",
          "uri": "spotify:artist:2nsCjA4fEasmnlOK0wXU7T"
        }
      ],
      "available_markets": [
      ],
      "disc_number": 1,
      "duration_ms": 195000,
      "explicit": false,
      "external_ids": {
        "isrc": "GB2LD1800565"
      },
      "external_urls": {
        "spotify": "https://open.spotify.com/track/4m7ACgtLGjTf3Ow3WVCOBE"
      },
      "href": "https://api.spotify.com/v1/tracks/4m7ACgtLGjTf3Ow3WVCOBE",
      "id": "4m7ACgtLGjTf3Ow3WVCOBE",
      "is_local": false,
      "name": "The Apocalypse",
      "popularity": 47,
      "preview_url": "https://p.scdn.co/mp3-preview/d87ed65c0229b78295af0251a02887c4377d50cd?cid=774b29d4f13844c495f206cafdad9c86",
      "track_number": 1,
      "type": "track",
      "uri": "spotify:track:4m7ACgtLGjTf3Ow3WVCOBE"
    },
    {
      "album": {
        "album_type": "SINGLE",
        "artists": [
          {
            "external_urls": {
              "spotify": "https://open.spotify.com/artist/0CbeG1224FS58EUx4tPevZ"
            },
            "href": "https://api.spotify.com/v1/artists/0CbeG1224FS58EUx4tPevZ",
            "id": "0CbeG1224FS58EUx4tPevZ",
            "name": "Timmy Trumpet",
            "type": "artist",
            "uri": "spotify:artist:0CbeG1224FS58EUx4tPevZ"
          },
          {
            "external_urls": {
              "spotify": "https://open.spotify.com/artist/2Zvo5BEkHyaHD1zk180kMz"
            },
            "href": "https://api.spotify.com/v1/artists/2Zvo5BEkHyaHD1zk180kMz",
            "id": "2Zvo5BEkHyaHD1zk180kMz",
            "name": "Dimatik",
            "type": "artist",
            "uri": "spotify:artist:2Zvo5BEkHyaHD1zk180kMz"
          }
        ],
        "available_markets": [

        ],
        "external_urls": {
          "spotify": "https://open.spotify.com/album/2qcWpdZ2yIHXA1J7AJnm3R"
        },
        "href": "https://api.spotify.com/v1/albums/2qcWpdZ2yIHXA1J7AJnm3R",
        "id": "2qcWpdZ2yIHXA1J7AJnm3R",
        "images": [
          {
            "height": 640,
            "url": "https://i.scdn.co/image/ab67616d0000b273e46c911c5015fd179be1f4e7",
            "width": 640
          },
          {
            "height": 300,
            "url": "https://i.scdn.co/image/ab67616d00001e02e46c911c5015fd179be1f4e7",
            "width": 300
          },
          {
            "height": 64,
            "url": "https://i.scdn.co/image/ab67616d00004851e46c911c5015fd179be1f4e7",
            "width": 64
          }
        ],
        "name": "Punjabi",
        "release_date": "2017-09-25",
        "release_date_precision": "day",
        "total_tracks": 1,
        "type": "album",
        "uri": "spotify:album:2qcWpdZ2yIHXA1J7AJnm3R"
      },
      "artists": [
        {
          "external_urls": {
            "spotify": "https://open.spotify.com/artist/0CbeG1224FS58EUx4tPevZ"
          },
          "href": "https://api.spotify.com/v1/artists/0CbeG1224FS58EUx4tPevZ",
          "id": "0CbeG1224FS58EUx4tPevZ",
          "name": "Timmy Trumpet",
          "type": "artist",
          "uri": "spotify:artist:0CbeG1224FS58EUx4tPevZ"
        },
        {
          "external_urls": {
            "spotify": "https://open.spotify.com/artist/2Zvo5BEkHyaHD1zk180kMz"
          },
          "href": "https://api.spotify.com/v1/artists/2Zvo5BEkHyaHD1zk180kMz",
          "id": "2Zvo5BEkHyaHD1zk180kMz",
          "name": "Dimatik",
          "type": "artist",
          "uri": "spotify:artist:2Zvo5BEkHyaHD1zk180kMz"
        }
      ],
      "available_markets": [
      ],
      "disc_number": 1,
      "duration_ms": 210211,
      "explicit": false,
      "external_ids": {
        "isrc": "NLZ541701127"
      },
      "external_urls": {
        "spotify": "https://open.spotify.com/track/2Byxr0ooaeLayBBaVLup67"
      },
      "href": "https://api.spotify.com/v1/tracks/2Byxr0ooaeLayBBaVLup67",
      "id": "2Byxr0ooaeLayBBaVLup67",
      "is_local": false,
      "name": "Punjabi",
      "popularity": 63,
      "preview_url": "https://p.scdn.co/mp3-preview/150ccf9f6227f588165670ed1041479fad2bed22?cid=774b29d4f13844c495f206cafdad9c86",
      "track_number": 1,
      "type": "track",
      "uri": "spotify:track:2Byxr0ooaeLayBBaVLup67"
    }
  ],
  "total": 50,
  "limit": 2,
  "offset": 0,
  "previous": null,
  "href": "https://api.spotify.com/v1/me/top/tracks?limit=2&offset=0&time_range=long_term",
  "next": "https://api.spotify.com/v1/me/top/tracks?limit=2&offset=2&time_range=long_term"
}